<?xml version="1.0" encoding="UTF-8" standalone="no"?>
<!-- Created with Inkscape (http://www.inkscape.org/) -->

<svg
   width="120"
   height="120"
   viewBox="0 0 120 120"
   version="1.1"
   id="svg5"
   xmlns:xlink="http://www.w3.org/1999/xlink"
   xmlns="http://www.w3.org/2000/svg"
   xmlns:svg="http://www.w3.org/2000/svg">
  <defs
     id="defs2">
    <linearGradient
       id="linearGradient2218">
      <stop
         style="stop-color:#ffdddd;stop-opacity:1;"
         offset="0"
         id="stop2214" />
      <stop
         style="stop-color:#aaaaff;stop-opacity:1;"
         offset="1"
         id="stop2216" />
    </linearGradient>
    <linearGradient
       xlink:href="#linearGradient2218"
       id="linearGradient2220"
       x1="60.000011"
       y1="11.417166"
       x2="60.000008"
       y2="108.58286"
       gradientUnits="userSpaceOnUse" />
  </defs>
  <g
     id="layer1">
    <rect
       style="fill:url(#linearGradient2220);fill-opacity:1"
       id="rect946"
       width="100"
       height="100"
       x="10"
       y="10"
       rx="20"
       ry="20" />
    <g
       id="g3078"
       transform="translate(0,0.2998775)">
      <path
         id="rect158"
         style="fill:#000000;fill-opacity:1;stroke-width:1"
         d="m 55.999999,31 c 0,98.53366 8.790012,98.53366 8.000001,0 h -3.205078 c 0.15801,68.973563 -1.599611,68.973563 -1.599611,0 z" />
      <path
         id="rect368"
         style="fill:#000000;fill-opacity:1;stroke-width:0.51656"
         d="m 48,27 h 24 l -2.4103,3 H 50.410301 Z" />
      <rect
         style="fill:#000000;fill-opacity:1;stroke-width:1"
         id="rect1102"
         width="5"
         height="1"
         x="57.5"
         y="14.5" />
      <rect
         style="fill:#000000;fill-opacity:1;stroke-width:1.2"
         id="rect3030"
         width="3"
         height="10"
         x="58.5"
         y="16" />
    </g>
  </g>
</svg>
